<?xml version="1.0" encoding="utf-8"?>
<!-- Generator: Adobe Illustrator 16.0.0, SVG Export Plug-In . SVG Version: 6.00 Build 0)  -->
<!DOCTYPE svg PUBLIC "-//W3C//DTD SVG 1.1//EN" "http://www.w3.org/Graphics/SVG/1.1/DTD/svg11.dtd">
<svg version="1.1" id="Layer_1" xmlns="http://www.w3.org/2000/svg" xmlns:xlink="http://www.w3.org/1999/xlink" x="0px" y="0px"
	 width="594.667px" height="365.889px" viewBox="0 0 594.667 365.889" enable-background="new 0 0 594.667 365.889"
	 xml:space="preserve">
<g>
	<polygon fill="#FCBA16" points="176.81,29.003 169.446,14.788 34.028,14.788 16.423,29.003 17.952,29.003 81.925,124.229 
		463.808,124.229 530.186,29.003 	"/>
	<polygon fill="#FCBA16" points="520.914,240.284 250.241,240.284 186.252,145.054 585.872,145.054 	"/>
	<polygon fill="#FCBA16" points="353.048,356.328 193.716,356.328 130.752,261.094 417.439,261.094 	"/>
</g>
</svg>
