<?xml version="1.0" encoding="utf-8"?>
<!-- Generator: Adobe Illustrator 15.1.0, SVG Export Plug-In . SVG Version: 6.00 Build 0)  -->
<!DOCTYPE svg PUBLIC "-//W3C//DTD SVG 1.1//EN" "http://www.w3.org/Graphics/SVG/1.1/DTD/svg11.dtd">
<svg version="1.1" id="Layer_1" xmlns="http://www.w3.org/2000/svg" xmlns:xlink="http://www.w3.org/1999/xlink" x="0px" y="0px"
	 width="512px" height="512px" viewBox="0 0 512 512" enable-background="new 0 0 512 512" xml:space="preserve">
<path fill="#1A171B" d="M301.301,256.249l113.125-113.101c12.5-12.524,12.5-32.774,0-45.3c-12.5-12.524-32.75-12.524-45.25,0
	L256,211.023L142.9,97.898c-12.475-12.55-32.75-12.574-45.25-0.05c-12.551,12.502-12.475,32.775,0,45.3l113.1,113.101l-113.1,113.1
	c-12.5,12.525-12.5,32.775,0,45.3c12.5,12.525,32.75,12.525,45.25,0L256.051,301.5l113.125,113.148
	c12.475,12.476,32.75,12.525,45.25,0c12.5-12.475,12.475-32.774,0-45.3L301.301,256.249z"/>
</svg>
