<?xml version="1.0" encoding="utf-8"?>
<!-- Generator: Adobe Illustrator 15.1.0, SVG Export Plug-In . SVG Version: 6.00 Build 0)  -->
<!DOCTYPE svg PUBLIC "-//W3C//DTD SVG 1.1//EN" "http://www.w3.org/Graphics/SVG/1.1/DTD/svg11.dtd">
<svg version="1.1" xmlns="http://www.w3.org/2000/svg" xmlns:xlink="http://www.w3.org/1999/xlink" x="0px" y="0px" width="512px"
	 height="512px" viewBox="0 0 512 512" enable-background="new 0 0 512 512" xml:space="preserve">
<g id="Background">
</g>
<g id="Ikons">
	<path fill="#1A171B" d="M256,224c61.856,0,112-50.144,112-112C368,50.145,317.856,0,256,0S144,50.145,144,112
		C144,173.856,194.144,224,256,224z M347.447,251.322L304,480l-32-152l33.453-38.543L256,240l-49.456,49.453L240,328
		l-32.003,151.985l-43.442-228.664C119.038,267.365,64,306.155,64,400v112h384V400C448,306.156,392.963,267.365,347.447,251.322z"/>
</g>
</svg>
