<?xml version="1.0" encoding="utf-8"?>
<!-- Generator: Adobe Illustrator 15.1.0, SVG Export Plug-In . SVG Version: 6.00 Build 0)  -->
<!DOCTYPE svg PUBLIC "-//W3C//DTD SVG 1.1//EN" "http://www.w3.org/Graphics/SVG/1.1/DTD/svg11.dtd">
<svg version="1.1" xmlns="http://www.w3.org/2000/svg" xmlns:xlink="http://www.w3.org/1999/xlink" x="0px" y="0px" width="512px"
	 height="512px" viewBox="0 0 512 512" enable-background="new 0 0 512 512" xml:space="preserve">
<g id="Background">
</g>
<g id="Ikons">
	<g>
		<circle fill="#1A171B" cx="256" cy="112" r="112"/>
	</g>
	<g>
		<circle fill="#1A171B" cx="256" cy="112" r="112"/>
		<path fill="#1A171B" d="M288,240h-64c0,0-160,0-160,160v112h384V400C448,240,288,240,288,240z M368,400h-96v-64h96V400z"/>
	</g>
</g>
</svg>
