<?xml version="1.0" encoding="utf-8"?>
<!-- Generator: Adobe Illustrator 15.1.0, SVG Export Plug-In . SVG Version: 6.00 Build 0)  -->
<!DOCTYPE svg PUBLIC "-//W3C//DTD SVG 1.1//EN" "http://www.w3.org/Graphics/SVG/1.1/DTD/svg11.dtd">
<svg version="1.1" xmlns="http://www.w3.org/2000/svg" xmlns:xlink="http://www.w3.org/1999/xlink" x="0px" y="0px" width="512px"
	 height="512px" viewBox="0 0 512 512" enable-background="new 0 0 512 512" xml:space="preserve">
<g id="Background">
</g>
<g id="Ikons">
	<path fill="#1A171B" d="M186.625,96l-32.1-64H0v447.999h512V96H186.625z M32.025,447.975V64.024H128.5l32.101,64h319.373v319.95
		H32.025z"/>
	<g>
		<path fill="#1A171B" d="M256,160c-70.717,0-127.972,57.314-128,128C128,358.714,185.283,416,256,416
			c70.712,0,128.027-57.286,128-128.001C384,217.313,326.712,160,256,160z M274.144,306.514v73.113h-36.571v-73.113h-73.144v-36.571
			h73.144v-73.172h36.571v73.172h73.141v36.571H274.144z"/>
	</g>
</g>
</svg>
