<?xml version="1.0" encoding="utf-8"?>
<!-- Generator: Adobe Illustrator 15.1.0, SVG Export Plug-In . SVG Version: 6.00 Build 0)  -->
<!DOCTYPE svg PUBLIC "-//W3C//DTD SVG 1.1//EN" "http://www.w3.org/Graphics/SVG/1.1/DTD/svg11.dtd">
<svg version="1.1" id="Layer_1" xmlns="http://www.w3.org/2000/svg" xmlns:xlink="http://www.w3.org/1999/xlink" x="0px" y="0px"
	 width="512px" height="512px" viewBox="0 0 512 512" enable-background="new 0 0 512 512" xml:space="preserve">
<path fill="#1A171B" d="M479.775,84.076L397.474,0.2H128.275v64h-96.05v447.6h383.499v-96h64.051V84.076z M351.725,447.801h-255.5
	V128.2h32.05v287.6h223.45V447.801z M192.275,351.8V64.2H352.05v64.952h63.725V351.8H192.275z"/>
</svg>
