<?xml version="1.0" encoding="utf-8"?>
<!-- Generator: Adobe Illustrator 15.1.0, SVG Export Plug-In . SVG Version: 6.00 Build 0)  -->
<!DOCTYPE svg PUBLIC "-//W3C//DTD SVG 1.1//EN" "http://www.w3.org/Graphics/SVG/1.1/DTD/svg11.dtd">
<svg version="1.1" id="Layer_1" xmlns="http://www.w3.org/2000/svg" xmlns:xlink="http://www.w3.org/1999/xlink" x="0px" y="0px"
	 width="512px" height="512px" viewBox="0 0 512 512" enable-background="new 0 0 512 512" xml:space="preserve">
<g>
	<rect x="128" y="416" fill="#1A171B" width="256" height="32.001"/>
	<rect x="128" y="352" fill="#1A171B" width="256" height="32"/>
	<path fill="#1A171B" d="M512,192.125l-64-32.049V95.975L352.026,0H64v160.075L0,192.125V384h64v128h384V384h64V192.125z M96,32h224
		v96h96.001v32.075H96V32z M416.001,256H384v-32h32.001V256z M352.001,224v32H320v-32H352.001z M288.001,224v32H256v-32H288.001z
		 M416.001,480H96v-96v-63.999v-0.025h320.001v0.025V384V480z"/>
</g>
</svg>
