<?xml version="1.0" encoding="utf-8"?>
<!-- Generator: Adobe Illustrator 15.1.0, SVG Export Plug-In . SVG Version: 6.00 Build 0)  -->
<!DOCTYPE svg PUBLIC "-//W3C//DTD SVG 1.1//EN" "http://www.w3.org/Graphics/SVG/1.1/DTD/svg11.dtd">
<svg version="1.1" id="Layer_1" xmlns="http://www.w3.org/2000/svg" xmlns:xlink="http://www.w3.org/1999/xlink" x="0px" y="0px"
	 width="512px" height="512px" viewBox="0 0 512 512" enable-background="new 0 0 512 512" xml:space="preserve">
<path fill="#1A171B" d="M256,512c-88.2,0-160-71.7-160-159.824c0-15.926,2.375-31.701,7.049-46.901c0.4-1.725,1-3.774,1.301-4.623
	C120.174,251.725,256,0,256,0s135.525,251.075,151.699,300.675l1.352,4.726C413.699,321,416,336.524,416,352.176
	C416,440.3,344.199,512,256,512z M256,131.052C196.999,239.001,173.875,293.55,165.074,320.8l-0.85,3.2
	c-2.8,9.149-4.225,18.65-4.225,28.176c0,52.874,43.074,95.899,96,95.899c52.949,0,96-43.025,96-95.899
	c0-9.376-1.376-18.7-4.076-27.677l-1.299-4.774C337.924,293.001,314.749,238.501,256,131.052z"/>
</svg>
