<?xml version="1.0" encoding="utf-8"?>
<!-- Generator: Adobe Illustrator 15.1.0, SVG Export Plug-In . SVG Version: 6.00 Build 0)  -->
<!DOCTYPE svg PUBLIC "-//W3C//DTD SVG 1.1//EN" "http://www.w3.org/Graphics/SVG/1.1/DTD/svg11.dtd">
<svg version="1.1" id="Layer_1" xmlns="http://www.w3.org/2000/svg" xmlns:xlink="http://www.w3.org/1999/xlink" x="0px" y="0px"
	 width="512px" height="512px" viewBox="0 0 512 512" enable-background="new 0 0 512 512" xml:space="preserve">
<path fill="#1A171B" d="M256,512c-88.199,0-160-71.7-160-159.823c0-15.927,2.375-31.702,7.05-46.901c0.4-1.726,1-3.775,1.3-4.624
	C120.176,251.725,256,0,256,0s135.526,251.075,151.702,300.675l1.35,4.726c4.65,15.601,6.949,31.125,6.949,46.776
	C416,440.3,344.201,512,256,512z"/>
</svg>
