<?xml version="1.0" encoding="utf-8"?>
<!-- Generator: Adobe Illustrator 15.1.0, SVG Export Plug-In . SVG Version: 6.00 Build 0)  -->
<!DOCTYPE svg PUBLIC "-//W3C//DTD SVG 1.1//EN" "http://www.w3.org/Graphics/SVG/1.1/DTD/svg11.dtd">
<svg version="1.1" id="Layer_1" xmlns="http://www.w3.org/2000/svg" xmlns:xlink="http://www.w3.org/1999/xlink" x="0px" y="0px"
	 width="512px" height="512px" viewBox="0 0 512 512" enable-background="new 0 0 512 512" xml:space="preserve">
<path fill="#1A171B" d="M0,448v64h512v-64H0z M96.051,96c17.65,0,32-14.3,32-32c0-17.675-14.35-32-32-32c-17.675,0-32,14.325-32,32
	C64.051,81.7,78.375,96,96.051,96z M96.051,384c35.325,0,64-28.65,64-64c0-35.325-28.675-64-64-64c-35.35,0-64,28.675-64,64
	C32.051,355.35,60.7,384,96.051,384z M96.051,224c26.499,0,48-21.5,48-48c0-26.525-21.501-48-48-48c-26.525,0-48,21.475-48,48
	C48.051,202.5,69.526,224,96.051,224z M256.051,96c17.651,0,32-14.3,32-32c0-17.675-14.35-32-32-32c-17.675,0-32,14.325-32,32
	C224.051,81.7,238.375,96,256.051,96z M256.051,224c26.499,0,48-21.5,48-48c0-26.525-21.502-48-48-48c-26.525,0-48,21.475-48,48
	C208.051,202.5,229.526,224,256.051,224z M256.051,384c35.325,0,64-28.65,64-64c0-35.325-28.676-64-64-64c-35.35,0-64,28.675-64,64
	C192.051,355.35,220.7,384,256.051,384z M416.051,384c35.324,0,64-28.65,64-64c0-35.325-28.676-64-64-64c-35.35,0-64,28.675-64,64
	C352.051,355.35,380.701,384,416.051,384z M416.051,224c26.498,0,48-21.5,48-48c0-26.525-21.502-48-48-48c-26.525,0-48,21.475-48,48
	C368.051,202.5,389.526,224,416.051,224z M416.051,96c17.65,0,32-14.3,32-32c0-17.675-14.35-32-32-32c-17.676,0-32,14.325-32,32
	C384.051,81.7,398.375,96,416.051,96z"/>
</svg>
