<?xml version="1.0" encoding="utf-8"?>
<!-- Generator: Adobe Illustrator 15.1.0, SVG Export Plug-In . SVG Version: 6.00 Build 0)  -->
<!DOCTYPE svg PUBLIC "-//W3C//DTD SVG 1.1//EN" "http://www.w3.org/Graphics/SVG/1.1/DTD/svg11.dtd">
<svg version="1.1" id="Layer_1" xmlns="http://www.w3.org/2000/svg" xmlns:xlink="http://www.w3.org/1999/xlink" x="0px" y="0px"
	 width="512px" height="512px" viewBox="0 0 512 512" enable-background="new 0 0 512 512" xml:space="preserve">
<path fill="#1A171B" d="M368,192v-32c0-17.675-14.3-32-32-32h-48.093C295.221,98.411,304,60.002,304,48c0-26.525-21.5-48-48-48
	c-26.525,0-48,21.475-48,48c0,12.058,8.815,50.56,16.076,80H176c-17.65,0-32,14.325-32,32v32H0v320h32V224h80v64h287.999v-64h80v288
	h32V192H368z M256.005,24c13.242,0,23.987,10.725,23.987,24c0,13.272-10.745,24-23.987,24c-13.27,0-24.013-10.728-24.013-24
	C231.992,34.725,242.736,24,256.005,24z M368,256H144v-32h224V256z"/>
</svg>
