<?xml version="1.0" encoding="utf-8"?>
<!-- Generator: Adobe Illustrator 15.1.0, SVG Export Plug-In . SVG Version: 6.00 Build 0)  -->
<!DOCTYPE svg PUBLIC "-//W3C//DTD SVG 1.1//EN" "http://www.w3.org/Graphics/SVG/1.1/DTD/svg11.dtd">
<svg version="1.1" id="Layer_1" xmlns="http://www.w3.org/2000/svg" xmlns:xlink="http://www.w3.org/1999/xlink" x="0px" y="0px"
	 width="512px" height="512px" viewBox="0 0 512 512" enable-background="new 0 0 512 512" xml:space="preserve">
<g>
	<polygon fill="#1A171B" points="-0.05,223.956 511.85,223.956 255.651,31.993 	"/>
	<polygon fill="#1A171B" points="512.051,224.031 256.075,416.644 0.151,224.007 0.151,224.007 0.151,479.956 0.151,479.956 
		512.051,479.931 	"/>
</g>
</svg>
