<?xml version="1.0" encoding="utf-8"?>
<!-- Generator: Adobe Illustrator 15.1.0, SVG Export Plug-In . SVG Version: 6.00 Build 0)  -->
<!DOCTYPE svg PUBLIC "-//W3C//DTD SVG 1.1//EN" "http://www.w3.org/Graphics/SVG/1.1/DTD/svg11.dtd">
<svg version="1.1" id="Layer_1" xmlns="http://www.w3.org/2000/svg" xmlns:xlink="http://www.w3.org/1999/xlink" x="0px" y="0px"
	 width="512px" height="512px" viewBox="0 0 512 512" enable-background="new 0 0 512 512" xml:space="preserve">
<path fill="#1A171B" d="M256.001,0C114.616,0,0,114.615,0,256c0,141.387,114.616,256,256.001,256C397.386,512,512,397.387,512,256
	C512,114.615,397.386,0,256.001,0z M48.607,271.999h65.384c1.581,33.564,8.125,65.996,19.195,96H80.7
	C62.702,339.89,51.281,307.167,48.607,271.999z M272.001,111.999V48.852c21.893,16.182,41.014,37.696,56.212,63.147H272.001z
	 M344.33,143.999c12.199,29.006,19.819,61.513,21.63,96h-93.959v-96H344.33z M240.001,48.852v63.147h-56.214
	C198.986,86.548,218.107,65.034,240.001,48.852z M240.001,143.999v96h-93.959c1.809-34.488,9.431-66.994,21.627-96H240.001z
	 M113.991,240H48.607c2.674-35.168,14.096-67.891,32.093-96h52.486C122.116,174.004,115.572,206.436,113.991,240z M146.042,271.999
	h93.959v96h-72.333C155.472,338.993,147.85,306.487,146.042,271.999z M240.001,400v63.146
	c-21.895-16.181-41.016-37.695-56.214-63.146H240.001z M272.001,463.146V400h56.212
	C313.015,425.451,293.894,446.966,272.001,463.146z M272.001,367.999v-96h93.959c-1.811,34.488-9.431,66.994-21.63,96H272.001z
	 M398.012,271.999h65.384c-2.677,35.168-14.098,67.891-32.095,96h-52.489C389.885,337.995,396.429,305.563,398.012,271.999z
	 M398.012,240c-1.583-33.564-8.127-65.996-19.2-96h52.489c17.997,28.109,29.418,60.833,32.095,96H398.012z M406.082,111.999h-41.253
	c-8.603-16.828-18.775-32.609-30.426-47.062c-0.684-0.848-1.391-1.654-2.08-2.489C360.419,73.539,385.524,90.574,406.082,111.999z
	 M179.678,62.449c-0.691,0.834-1.396,1.641-2.082,2.489c-11.65,14.452-21.823,30.233-30.424,47.062h-41.254
	C126.477,90.574,151.579,73.539,179.678,62.449z M105.917,400h41.256c8.601,16.828,18.773,32.609,30.424,47.062
	c0.686,0.848,1.391,1.653,2.084,2.489C151.579,438.462,126.477,421.427,105.917,400z M332.32,449.552
	c0.693-0.836,1.4-1.642,2.084-2.489c11.65-14.453,21.823-30.234,30.426-47.062h41.257
	C385.524,421.427,360.419,438.462,332.32,449.552z"/>
</svg>
