<?xml version="1.0" encoding="utf-8"?>
<!-- Generator: Adobe Illustrator 15.1.0, SVG Export Plug-In . SVG Version: 6.00 Build 0)  -->
<!DOCTYPE svg PUBLIC "-//W3C//DTD SVG 1.1//EN" "http://www.w3.org/Graphics/SVG/1.1/DTD/svg11.dtd">
<svg version="1.1" id="Layer_1" xmlns="http://www.w3.org/2000/svg" xmlns:xlink="http://www.w3.org/1999/xlink" x="0px" y="0px"
	 width="512px" height="512px" viewBox="0 0 512 512" enable-background="new 0 0 512 512" xml:space="preserve">
<g>
	<path fill="#1A171B" d="M255.999,0C114.873,0,0,114.899,0,256c0,141.176,114.873,256,255.999,256C397.199,512,512,397.176,512,256
		C512,114.899,397.199,0,255.999,0z M32,256c0-37.325,9.299-72.5,25.549-103.5l2.074,1.475l10.125-4.225l3.375-10.125l-6.87-2.075
		c6.8-10.825,14.472-21,22.945-30.5l-3.449,8.975l13.499-2.524l16-2.525l13.501-5.075l12.624,2.525l-2.5,8.45l-3.375,8.425
		l-10.124,5.075l2.525,11.774l-17.7,10.101l-18.551,42.175L86.624,218l5.024,16.024l6.75,11.8l3.375-1.675l3.351-4.225v-17.7
		l7.624,23.6l10.102,16.025l14.35,10.95l9.249,12.649l0.852,10.95l10.099,5.9l8.976-1.25l5.374,16.425l-10.125,16.875l8.428,30.325
		l19.403,22.774l8.419,16.85l17.676,58.201l5.074,14.449C113.899,459.899,32,367.475,32,256z M255.999,480
		c-5.2,0-10.3-0.4-15.45-0.75l-3.051-13.426l8.451-12.65l0.55-10.574l10.4-3.051l5.874-7.424L264.475,422l12.649-5.025l11.775-9.301
		l13.474-21.925l7.626-26.125l-2.545-7.574l-13.104-5.399L278.799,336l-17.699,2.55l-5.075-4.2l8.45-15.175l-4.221-8.45
		l-12.63-3.351l-14.351-5.074l-6.749-10.95l-10.976-5.05l-13.449-4.226l-6.75,5.075l-3.375,4.2l-6.921-2.601l-8.255,4.275
		l-16.6,0.55l-3.326-7.175l6.426-12.75l-5.9-7.6l-11.2-2.5l8.276-18.55l-13.102,3.35l-6.719,4.225l-5.055-12.649l6.75-11.775
		l7.6-12.675l14.674,0.65l6.376,3.574h5.052v9.275c0,0,6.748,21.925,12.648,5.05c5.899-16.85,5.899-16.85,5.899-16.85L202.949,202
		l5.849-11.775l5.075-16l16.026-4.25l5.899-4.2l10-4.3l-9.175-7.5l9.325-6.75l23.55,0.825l2.55-8.425l-11.795-23.601l-13.505-5.05
		l-9.251,10.95l-5.898,10.975l-7.602,2.525l-12.625-15.2l19.377-16l10.123-2.524l24.426,5.899l11.601-6.075l8.875,16.926l1.45,2.625
		l10.774-20.4l9.7-10.275l8.175-1.35l-11.825-35.4l-11.773-9.274l-21.9,10.975l-6.922,10.775l-17.504-0.675l-15.199,4.225
		l-5.9,6.725l-30.352-3.375l-1.699,10.15h-11.801l-12.624-3.4l-13.425,3.851l-18.6,2.075l-7.726,7.8l-7.476,3.975l-12.649,5.075
		l-17.351,2.35C132.123,60.225,190.748,32,255.999,32c40.525,0,78.45,11.001,111.275,29.899l2.425,9.4l-5.201-1.899L352.125,66.3
		l-3.426,6.8l5.953,21l11.396,7.2l11.351,2.075l-4.851,5.226l-1.049,8.274l-0.701,7.649l-20.7-17.55l8.101,17.775l5.75,9.825
		l4.25-7.275l0.7,11.225l4.3,7.851l-11.826,7.6l7.626,11.8l5.05,10.95l5.9-4.225l5.904-5.899l0.846-9.276l14.299-0.85l0.875,5.925
		l11.502,6.3l2.499-7.649l-6.42-12.15l-12.655-5.05l3.425-3.8l14.276,5.5l4.299,13.851l6.924,2.074l-4.074-14.175l-2.925-6.825
		l7.575-3.375v11.8l5,7.5l8.8-3.3l8.675,12.975l6.201,14.851l5.9,7.575l-3.376,16.024l12.625,5.075l1.575,17.625l6.699,11.675
		l-4.049,2.726l-14.351-13.476l-5.024-18.55l-7.601-16.875l-13.499-10.95l-8.422,7.575l-11.803-5.9l-7.602-6.725l-10.924,1.675
		l-11.826,5.05l-9.25,22.775l-8.425,30.325l2.075,33.3l2.099,15.6l18.576,17.7l21.9-8.425l17.6-0.8l11.075,23.55l4.199,17.725
		l5.905,9.275L433.875,373.1l-2.5,20.225l-2.926,5.525C387.299,448.4,325.299,480,255.999,480z"/>
	<polygon fill="#1A171B" points="348.749,137.1 357.199,135.425 352.449,123.625 	"/>
	<polygon fill="#1A171B" points="317.549,104.225 327.699,106.75 333.549,105.05 330.198,98.325 	"/>
</g>
</svg>
