<?xml version="1.0" encoding="utf-8"?>
<!-- Generator: Adobe Illustrator 15.1.0, SVG Export Plug-In . SVG Version: 6.00 Build 0)  -->
<!DOCTYPE svg PUBLIC "-//W3C//DTD SVG 1.1//EN" "http://www.w3.org/Graphics/SVG/1.1/DTD/svg11.dtd">
<svg version="1.1" id="Layer_1" xmlns="http://www.w3.org/2000/svg" xmlns:xlink="http://www.w3.org/1999/xlink" x="0px" y="0px"
	 width="512px" height="512px" viewBox="0 0 512 512" enable-background="new 0 0 512 512" xml:space="preserve">
<path fill="#1A171B" d="M0,32v448h512V32H0z M96,63.975c8.824,0,16.001,7.175,16.001,16c0,8.85-7.177,16-16.001,16s-16-7.15-16-16
	C80,71.149,87.176,63.975,96,63.975z M48.025,63.975c8.85,0,16,7.175,16,16c0,8.85-7.15,16-16,16c-8.824,0-16-7.15-16-16
	C32.025,71.149,39.201,63.975,48.025,63.975z M480,447.949h-448V128h448V447.949z M480.026,96h-336V63.999h336V96z"/>
</svg>
