<?xml version="1.0" encoding="utf-8"?>
<!-- Generator: Adobe Illustrator 15.1.0, SVG Export Plug-In . SVG Version: 6.00 Build 0)  -->
<!DOCTYPE svg PUBLIC "-//W3C//DTD SVG 1.1//EN" "http://www.w3.org/Graphics/SVG/1.1/DTD/svg11.dtd">
<svg version="1.1" id="Layer_1" xmlns="http://www.w3.org/2000/svg" xmlns:xlink="http://www.w3.org/1999/xlink" x="0px" y="0px"
	 width="512px" height="512px" viewBox="0 0 512 512" enable-background="new 0 0 512 512" xml:space="preserve">
<path fill="#1A171B" d="M192.323,319.891l-0.276,0.125h128.207V191.809l-0.35,0.475l-48.516,48.491l-75.613-75.562l-30.175,30.25
	L241.189,271L192.323,319.891z M479.762,127.881v352.318H95.818v32.026l415.97-0.025V127.881H479.762z M448.085,63.828h-32.452
	v352.317H31.764v32.027h416.321V63.828z M383.982-0.2H-0.212v384.269h384.194V-0.2z M95.867,31.801
	c8.832,0,16.014,7.181,16.014,16.013s-7.182,16.013-16.014,16.013s-16.013-7.181-16.013-16.013S87.035,31.801,95.867,31.801z
	 M47.853,31.801c8.857,0,16.014,7.181,16.014,16.013S56.71,63.828,47.853,63.828c-8.832,0-16.013-7.181-16.013-16.013
	S39.021,31.801,47.853,31.801z M351.956,352.041H31.815V95.879h320.141V352.041z M351.981,63.853H143.808V31.826h208.173V63.853z"/>
</svg>
