<?xml version="1.0" encoding="utf-8"?>
<!-- Generator: Adobe Illustrator 15.1.0, SVG Export Plug-In . SVG Version: 6.00 Build 0)  -->
<!DOCTYPE svg PUBLIC "-//W3C//DTD SVG 1.1//EN" "http://www.w3.org/Graphics/SVG/1.1/DTD/svg11.dtd">
<svg version="1.1" id="Layer_1" xmlns="http://www.w3.org/2000/svg" xmlns:xlink="http://www.w3.org/1999/xlink" x="0px" y="0px"
	 width="512px" height="512px" viewBox="0 0 512 512" enable-background="new 0 0 512 512" xml:space="preserve">
<path fill="#1A171B" d="M251.104,384.001L448,211.716v-53.042L256,320l-90.209-124.417L64,277.017v49.959l96-72.167L251.104,384.001
	z M0,32v448.001h512V32H0z M96,64.003c8.836,0,16,7.163,16,16c0,8.835-7.164,16-16,16c-8.837,0-16-7.165-16-16
	C80,71.166,87.163,64.003,96,64.003z M48,64.003c8.836,0,16,7.163,16,16c0,8.835-7.164,16-16,16c-8.837,0-16-7.165-16-16
	C32,71.166,39.163,64.003,48,64.003z M480,448.001H32V128h448V448.001z M480,96.002H144v-32h336V96.002z"/>
</svg>
