<?xml version="1.0" encoding="utf-8"?>
<!-- Generator: Adobe Illustrator 15.1.0, SVG Export Plug-In . SVG Version: 6.00 Build 0)  -->
<!DOCTYPE svg PUBLIC "-//W3C//DTD SVG 1.1//EN" "http://www.w3.org/Graphics/SVG/1.1/DTD/svg11.dtd">
<svg version="1.1" id="Layer_1" xmlns="http://www.w3.org/2000/svg" xmlns:xlink="http://www.w3.org/1999/xlink" x="0px" y="0px"
	 width="512px" height="512px" viewBox="0 0 512 512" enable-background="new 0 0 512 512" xml:space="preserve">
<path fill="#1A171B" d="M111.535,240.3h192.104v-64.047H111.535V240.3z M385.131,317.205c19.586-31.748,31.09-69.023,31.09-109.054
	C416.221,93.143,323.073,0,208.11,0C93.151,0,0,93.143,0,208.151s93.15,208.153,208.109,208.153
	c40.074,0,77.395-11.535,109.16-31.148L444.114,512L512,444.125L385.131,317.205z M208.136,352.258
	c-79.592,0-144.078-64.498-144.078-144.106c0-79.607,64.486-144.104,144.078-144.104c79.594,0,144.077,64.497,144.077,144.104
	C352.213,287.76,287.731,352.258,208.136,352.258z"/>
</svg>
