<?xml version="1.0" encoding="utf-8"?>
<!-- Generator: Adobe Illustrator 15.1.0, SVG Export Plug-In . SVG Version: 6.00 Build 0)  -->
<!DOCTYPE svg PUBLIC "-//W3C//DTD SVG 1.1//EN" "http://www.w3.org/Graphics/SVG/1.1/DTD/svg11.dtd">
<svg version="1.1" id="Layer_1" xmlns="http://www.w3.org/2000/svg" xmlns:xlink="http://www.w3.org/1999/xlink" x="0px" y="0px"
	 width="512px" height="512px" viewBox="0 0 512 512" enable-background="new 0 0 512 512" xml:space="preserve">
<path fill="#1A171B" d="M350.188,289.91c-15.733,24.016-36.269,44.553-60.257,60.291L451.717,512L512,451.736L350.188,289.91z
	 M191.527,96.188h-32.016v64.041H95.477v32.021h64.034v64.041h32.016v-64.041h64.036v-32.021h-64.036V96.188z M352.189,176.112
	C352.189,78.803,273.372,0,176.094,0C78.818,0,0,78.803,0,176.112C0,273.4,78.818,352.227,176.094,352.227
	C273.372,352.227,352.189,273.4,352.189,176.112z M176.142,288.26c-61.906,0-112.058-50.156-112.058-112.072
	c0-61.914,50.151-112.07,112.058-112.07c61.911,0,112.062,50.156,112.062,112.07C288.204,238.104,238.053,288.26,176.142,288.26z"/>
</svg>
