<?xml version="1.0" encoding="utf-8"?>
<!-- Generator: Adobe Illustrator 15.1.0, SVG Export Plug-In . SVG Version: 6.00 Build 0)  -->
<!DOCTYPE svg PUBLIC "-//W3C//DTD SVG 1.1//EN" "http://www.w3.org/Graphics/SVG/1.1/DTD/svg11.dtd">
<svg version="1.1" id="Layer_1" xmlns="http://www.w3.org/2000/svg" xmlns:xlink="http://www.w3.org/1999/xlink" x="0px" y="0px"
	 width="512px" height="512px" viewBox="0 0 512 512" enable-background="new 0 0 512 512" xml:space="preserve">
<g>
	<path fill="#1A171B" d="M16,192c-8.8,0-16,7.2-16,16v96c0,8.801,7.2,16,16,16s16-7.199,16-16v-96C32,199.2,24.8,192,16,192z"/>
	<path fill="#1A171B" d="M48,304l80.062,18.477C129.385,374.27,171.898,416,224,416c36.976,0,69.112-21.024,85.144-51.734L464,400
		V112L48,208V304z M224,384c-31.878,0-58.381-23.43-63.209-53.972l115.591,26.675C264.794,373.192,245.641,384,224,384z"/>
	<path fill="#1A171B" d="M496,80c-8.8,0-16,7.2-16,16v320c0,8.801,7.2,16,16,16s16-7.199,16-16V96C512,87.2,504.8,80,496,80z"/>
</g>
</svg>
