<?xml version="1.0" encoding="utf-8"?>
<!-- Generator: Adobe Illustrator 15.1.0, SVG Export Plug-In . SVG Version: 6.00 Build 0)  -->
<!DOCTYPE svg PUBLIC "-//W3C//DTD SVG 1.1//EN" "http://www.w3.org/Graphics/SVG/1.1/DTD/svg11.dtd">
<svg version="1.1" id="Layer_1" xmlns="http://www.w3.org/2000/svg" xmlns:xlink="http://www.w3.org/1999/xlink" x="0px" y="0px"
	 width="512px" height="512px" viewBox="0 0 512 512" enable-background="new 0 0 512 512" xml:space="preserve">
<path fill="#1A171B" d="M448,0H64C28.651,0,0,28.675,0,64v384c0,35.375,28.65,64,64,64h384c35.325,0,64-28.625,64-64V64
	C512,28.675,483.325,0,448,0z M112,448.15c-26.524,0-48-21.5-48-48s21.476-48,48-48c26.476,0,48,21.5,48,48
	S138.476,448.15,112,448.15z M286.2,448.15c-14.45,0-26.55-9.5-30.625-22.6c-0.425-1.4-1.925-9.051-2.375-11.4
	c-14.125-78.675-75.7-140.975-154.25-155.425c-2.45-0.476-8.95-1.625-9.7-1.8C74.825,253.801,64,241.051,64,225.676
	c0-17.726,14.4-32.275,32.15-32.125c3.774,0.05,10.5,1.475,11.925,1.751C211.05,213.176,293,292.351,315,393.775
	c1.351,6.175,3.325,16.35,3.325,22.225C318.25,433.75,303.925,448.15,286.2,448.15z M415.851,448.15
	c-15.025,0-27.525-10.4-31.025-24.375c-0.325-1.175-0.525-2.45-0.675-3.674c0,0-0.976-8-1.45-11.977
	c-18.225-145.475-133.875-261.074-279.5-278.85C100,128.902,93.7,128,93.7,128C77.075,126.775,64,113.051,64,96.15
	C64,78.426,78.401,64,96.151,64c0.6,0,14.524,1.426,20.825,2.301C293.7,90.726,432.45,235.351,447.95,414.775h-0.05
	c0,0.425,0.1,0.825,0.1,1.225C448,433.75,433.575,448.15,415.851,448.15z"/>
</svg>
