<?xml version="1.0" encoding="utf-8"?>
<!-- Generator: Adobe Illustrator 15.1.0, SVG Export Plug-In . SVG Version: 6.00 Build 0)  -->
<!DOCTYPE svg PUBLIC "-//W3C//DTD SVG 1.1//EN" "http://www.w3.org/Graphics/SVG/1.1/DTD/svg11.dtd">
<svg version="1.1" id="Layer_1" xmlns="http://www.w3.org/2000/svg" xmlns:xlink="http://www.w3.org/1999/xlink" x="0px" y="0px"
	 width="512px" height="512px" viewBox="0 0 512 512" enable-background="new 0 0 512 512" xml:space="preserve">
<path fill="#1A171B" d="M505.855,412.807c-14.851-25.448-194.325-329.3-211.151-358.451c-17.225-29.8-60.25-29.875-77.599,0.125
	c-16.775,29.15-196.25,332.877-211,358.375c-17.325,30,4.324,67.15,38.8,67.15c29.45,0,388.6,0,422.225,0
	C501.605,480.007,523.254,442.707,505.855,412.807z M256.079,416.307c-17.65,0-31.975-14.35-31.975-32c0-17.7,14.324-32,31.975-32
	c17.674,0,32.025,14.3,32.025,32C288.104,401.957,273.753,416.307,256.079,416.307z M288.104,288.207c0,17.6-14.4,32-32,32
	c-17.625,0-32-14.4-32-32v-128c0-17.625,14.375-32,32-32c17.599,0,32,14.375,32,32V288.207z"/>
</svg>
