<?xml version="1.0" encoding="utf-8"?>
<!-- Generator: Adobe Illustrator 15.1.0, SVG Export Plug-In . SVG Version: 6.00 Build 0)  -->
<!DOCTYPE svg PUBLIC "-//W3C//DTD SVG 1.1//EN" "http://www.w3.org/Graphics/SVG/1.1/DTD/svg11.dtd">
<svg version="1.1" id="Layer_1" xmlns="http://www.w3.org/2000/svg" xmlns:xlink="http://www.w3.org/1999/xlink" x="0px" y="0px"
	 width="512px" height="512px" viewBox="0 0 512 512" enable-background="new 0 0 512 512" xml:space="preserve">
<g>
	<path fill="#1A171B" d="M97.622,414.359c87.3,87.375,229.425,87.375,316.775,0c87.324-87.325,87.324-229.425,0-316.775
		c-87.351-87.3-229.476-87.3-316.775,0C10.273,184.935,10.273,327.084,97.622,414.359z M412.597,223.984H99.422
		c6.075-29.726,20.425-58.125,43.45-81.125c62.375-62.4,163.9-62.4,226.275,0C392.148,165.834,406.523,194.259,412.597,223.984z
		 M142.872,369.109c-23.025-23.025-37.4-51.375-43.45-81.175l313.175,0.05c-6.05,29.75-20.449,58.1-43.449,81.125
		C306.747,431.534,205.247,431.484,142.872,369.109z"/>
</g>
</svg>
