<?xml version="1.0" encoding="utf-8"?>
<!-- Generator: Adobe Illustrator 15.1.0, SVG Export Plug-In . SVG Version: 6.00 Build 0)  -->
<!DOCTYPE svg PUBLIC "-//W3C//DTD SVG 1.1//EN" "http://www.w3.org/Graphics/SVG/1.1/DTD/svg11.dtd">
<svg version="1.1" id="Layer_1" xmlns="http://www.w3.org/2000/svg" xmlns:xlink="http://www.w3.org/1999/xlink" x="0px" y="0px"
	 width="512px" height="512px" viewBox="0 0 512 512" enable-background="new 0 0 512 512" xml:space="preserve">
<path fill="#1A171B" d="M0,192.746v127.914h63.981l127.888,95.935V96.811L63.982,192.746H0z M266.417,120.496
	c-5.995-6.521-16.089-6.896-22.584-0.899c-6.495,5.995-6.896,16.139-0.899,22.56c29.155,31.628,45.219,72.425,45.219,114.997
	c0,41.947-15.639,82.344-44.069,113.697c-5.921,6.57-5.421,16.688,1.148,22.609c3.049,2.773,6.896,4.122,10.718,4.122
	c4.347,0,8.694-1.773,11.843-5.246c33.751-37.274,52.339-85.241,52.339-135.183C320.131,206.537,301.044,158.02,266.417,120.496z"/>
</svg>
