<?xml version="1.0" encoding="utf-8"?>
<!-- Generator: Adobe Illustrator 15.1.0, SVG Export Plug-In . SVG Version: 6.00 Build 0)  -->
<!DOCTYPE svg PUBLIC "-//W3C//DTD SVG 1.1//EN" "http://www.w3.org/Graphics/SVG/1.1/DTD/svg11.dtd">
<svg version="1.1" id="Layer_1" xmlns="http://www.w3.org/2000/svg" xmlns:xlink="http://www.w3.org/1999/xlink" x="0px" y="0px"
	 width="512px" height="512px" viewBox="0 0 512 512" enable-background="new 0 0 512 512" xml:space="preserve">
<g>
	<path fill="#1A171B" d="M159.992,348.102c-19.874,0-35.998,16.1-35.998,35.999c0,19.849,16.124,35.998,35.998,35.998
		s35.998-16.149,35.998-35.998C195.99,364.201,179.866,348.102,159.992,348.102z"/>
	<path fill="#1A171B" d="M448.253,127.938c-0.1-7.975-0.3-19.073-0.475-20.124c-1.051-6.624-6.25-12.149-13.2-13.349L50.623,32.218
		c-8.675-1.45-16.949,4.475-18.399,13.149s4.475,16.949,13.174,18.398l371.007,60.247v3.9H63.997C28.774,127.913,0,156.712,0,191.91
		v256.037c0,35.223,28.773,63.996,63.997,63.996h384.031c35.198,0,63.996-28.773,63.996-63.996V191.91
		C512.025,156.786,483.352,128.088,448.253,127.938z M160.018,480.17c-52.947,0-95.995-42.997-95.995-95.995
		c0-53.047,43.048-95.995,95.995-95.995c53.072,0,95.995,42.948,95.995,95.995C256.013,437.173,213.09,480.17,160.018,480.17z
		 M352.008,351.877c-17.674,0-31.999-14.324-31.999-31.999c0-17.698,14.325-31.998,31.999-31.998
		c17.699,0,31.998,14.3,31.998,31.998C384.006,337.553,369.707,351.877,352.008,351.877z M448.003,351.877
		c-17.674,0-31.998-14.324-31.998-31.999c0-17.698,14.324-31.998,31.998-31.998c17.699,0,31.998,14.3,31.998,31.998
		C480.001,337.553,465.702,351.877,448.003,351.877z M480.052,255.856H340.758l-26.118-31.898l-26.153,31.898H31.874V191.91h448.178
		V255.856z"/>
</g>
</svg>
