<?xml version="1.0" encoding="utf-8"?>
<!-- Generator: Adobe Illustrator 15.1.0, SVG Export Plug-In . SVG Version: 6.00 Build 0)  -->
<!DOCTYPE svg PUBLIC "-//W3C//DTD SVG 1.1//EN" "http://www.w3.org/Graphics/SVG/1.1/DTD/svg11.dtd">
<svg version="1.1" id="Layer_1" xmlns="http://www.w3.org/2000/svg" xmlns:xlink="http://www.w3.org/1999/xlink" x="0px" y="0px"
	 width="512px" height="512px" viewBox="0 0 512 512" enable-background="new 0 0 512 512" xml:space="preserve">
<path fill="#1A171B" d="M449.1,351.524V31.55L161.051,95.575l0.025,257.399c-5.175-0.85-10.5-1.3-16-1.3c-44.175,0-80,28.649-80,64
	c0,35.35,35.825,64,80,64c44.175,0,80-28.65,80-64c0,0,0,0,0-0.025l0,0v-270.3L385.1,109.8v179.125
	c-5.176-0.851-10.525-1.275-15.975-1.275c-44.201,0-80,28.65-80,64c0,35.351,35.799,64,80,64c44.15,0,80-28.649,80-64
	C449.125,351.6,449.1,351.574,449.1,351.524z"/>
</svg>
