<?xml version="1.0" encoding="utf-8"?>
<!-- Generator: Adobe Illustrator 15.1.0, SVG Export Plug-In . SVG Version: 6.00 Build 0)  -->
<!DOCTYPE svg PUBLIC "-//W3C//DTD SVG 1.1//EN" "http://www.w3.org/Graphics/SVG/1.1/DTD/svg11.dtd">
<svg version="1.1" id="Layer_1" xmlns="http://www.w3.org/2000/svg" xmlns:xlink="http://www.w3.org/1999/xlink" x="0px" y="0px"
	 width="512px" height="512px" viewBox="0 0 512 512" enable-background="new 0 0 512 512" xml:space="preserve">
<path fill="#1A171B" d="M128,0v32h352v352h32V0H128z M64,96h352v352h32V64H64V96z M0,512h384V128H0V512z M127.999,375.184
	c5.611-0.896,10.996-1.026,16.001-0.5V224l159.966-32L304,371.516c0,19.879-21.491,39.433-48.001,43.668
	C229.49,419.422,208,406.737,208,386.855c0-19.881,21.489-39.434,47.999-43.672c5.611-0.896,10.996-1.026,16.001-0.5V230.399
	l-96.032,19.2L176,403.516c0,19.879-21.491,39.433-48.001,43.668C101.49,451.422,80,438.735,80,418.855
	C80,398.973,101.49,379.422,127.999,375.184z"/>
</svg>
