<?xml version="1.0" encoding="utf-8"?>
<!-- Generator: Adobe Illustrator 15.1.0, SVG Export Plug-In . SVG Version: 6.00 Build 0)  -->
<!DOCTYPE svg PUBLIC "-//W3C//DTD SVG 1.1//EN" "http://www.w3.org/Graphics/SVG/1.1/DTD/svg11.dtd">
<svg version="1.1" id="Layer_1" xmlns="http://www.w3.org/2000/svg" xmlns:xlink="http://www.w3.org/1999/xlink" x="0px" y="0px"
	 width="512px" height="512px" viewBox="0 0 512 512" enable-background="new 0 0 512 512" xml:space="preserve">
<g>
	<path fill="#1A171B" d="M224.026,160c17.675,0,32-14.301,32-32c0-17.65-14.325-32-32-32c-17.676,0-32,14.35-32,32
		C192.026,145.7,206.35,160,224.026,160z"/>
	<path fill="#1A171B" d="M255.976,304c-26.5,0-48,21.523-48,48c0,26.5,21.5,48,48,48c26.575,0,48-21.5,48-48
		C303.977,325.523,282.551,304,255.976,304z"/>
	<path fill="#1A171B" d="M96.001,0v512h320V0H96.001z M320,31.975c17.676,0,32,14.35,32,32c0,17.649-14.324,32-32,32
		c-17.65,0-32-14.351-32-32C288,46.325,302.35,31.975,320,31.975z M224.026,64c35.349,0,64,28.674,64,64c0,35.375-28.65,64-64,64
		c-35.325,0-64-28.625-64-64C160.026,92.674,188.701,64,224.026,64z M256.001,479.975c-70.699,0-128-57.301-128-128
		c0-70.676,57.301-128,128-128c70.675,0,128,57.324,128,128C384,422.674,326.676,479.975,256.001,479.975z"/>
</g>
</svg>
