<?xml version="1.0" encoding="utf-8"?>
<!-- Generator: Adobe Illustrator 15.1.0, SVG Export Plug-In . SVG Version: 6.00 Build 0)  -->
<!DOCTYPE svg PUBLIC "-//W3C//DTD SVG 1.1//EN" "http://www.w3.org/Graphics/SVG/1.1/DTD/svg11.dtd">
<svg version="1.1" id="Layer_1" xmlns="http://www.w3.org/2000/svg" xmlns:xlink="http://www.w3.org/1999/xlink" x="0px" y="0px"
	 width="512px" height="512px" viewBox="0 0 512 512" enable-background="new 0 0 512 512" xml:space="preserve">
<path fill="#1A171B" d="M350.125,184.025H33.875C15.25,184.025,0,199.275,0,217.949v188.1c0,18.65,15.25,33.901,33.875,33.901
	h316.25c18.625,0,33.875-15.251,33.875-33.901v-188.1C384,199.275,368.75,184.025,350.125,184.025z M111.975,160
	c44.175,0,80-35.801,80-80c0-44.15-35.825-80-80-80s-80,35.85-80,80C31.975,124.199,67.8,160,111.975,160z M416,245.025v134.049
	l96,60.951v-256L416,245.025z M304,0c-44.175,0-80,35.85-80,80c0,44.199,35.825,80,80,80c44.176,0,80-35.801,80-80
	C384,35.85,348.176,0,304,0z"/>
</svg>
