<?xml version="1.0" encoding="utf-8"?>
<!-- Generator: Adobe Illustrator 15.1.0, SVG Export Plug-In . SVG Version: 6.00 Build 0)  -->
<!DOCTYPE svg PUBLIC "-//W3C//DTD SVG 1.1//EN" "http://www.w3.org/Graphics/SVG/1.1/DTD/svg11.dtd">
<svg version="1.1" id="Layer_1" xmlns="http://www.w3.org/2000/svg" xmlns:xlink="http://www.w3.org/1999/xlink" x="0px" y="0px"
	 width="512px" height="512px" viewBox="0 0 512 512" enable-background="new 0 0 512 512" xml:space="preserve">
<path fill="#1A171B" d="M256,322.274c44.184,0,80-35.814,80-80c0-44.184-35.816-80-80-80c-44.182,0-80,35.816-80,80
	C176,286.46,211.818,322.274,256,322.274z M256,210.274c17.674,0,32,14.326,32,32s-14.326,32.001-32,32.001
	c-17.672,0-32-14.327-32-32.001S238.327,210.274,256,210.274z M256,418.274c114.877,0,208-93.127,208-208s-93.123-208-208-208
	c-114.874,0-208,93.127-208,208S141.126,418.274,256,418.274z M256,130.274c61.856,0,112,50.145,112,112
	c0,61.857-50.145,112.001-112,112.001c-61.855,0-112-50.144-112-112.001C144,180.419,194.145,130.274,256,130.274z M256,448
	c-59.547,0-114.018-21.696-155.967-57.599L64,511.999h384l-36.033-121.598C370.018,426.304,315.547,448,256,448z"/>
</svg>
