<?xml version="1.0" encoding="utf-8"?>
<!-- Generator: Adobe Illustrator 15.1.0, SVG Export Plug-In . SVG Version: 6.00 Build 0)  -->
<!DOCTYPE svg PUBLIC "-//W3C//DTD SVG 1.1//EN" "http://www.w3.org/Graphics/SVG/1.1/DTD/svg11.dtd">
<svg version="1.1" id="Layer_1" xmlns="http://www.w3.org/2000/svg" xmlns:xlink="http://www.w3.org/1999/xlink" x="0px" y="0px"
	 width="512px" height="512px" viewBox="0 0 512 512" enable-background="new 0 0 512 512" xml:space="preserve">
<g>
	<path fill="#1A171B" d="M256,256c0-17.672-14.324-32-32-32c-17.671,0-32,14.328-32,32c0,17.675,14.328,32,32,32
		C241.676,288,256,273.675,256,256z"/>
	<path fill="#1A171B" d="M339.427,448C404.485,408.805,448,337.487,448,256c0-123.713-100.287-224-224-224
		C100.288,32,0,132.287,0,256s100.288,224,224,224h288v-32H339.427z M346.963,165.716c23.773-7.726,49.301,5.286,57.027,29.054
		c7.719,23.771-5.282,49.301-29.055,57.025c-23.771,7.723-49.301-5.284-57.024-29.056
		C310.186,198.969,323.198,173.438,346.963,165.716z M345.25,343.15c14.693,20.221,10.208,48.519-10.01,63.212
		c-20.221,14.688-48.521,10.21-63.213-10.013c-14.689-20.219-10.209-48.521,10.013-63.211
		C302.262,318.447,330.563,322.93,345.25,343.15z M224,64c24.994,0,45.253,20.261,45.253,45.255
		c0,24.993-20.259,45.255-45.253,45.255c-24.994,0-45.254-20.262-45.254-45.255C178.746,84.261,199.007,64,224,64z M73.066,251.795
		c-23.772-7.723-36.778-33.254-29.057-57.025c7.726-23.77,33.253-36.777,57.025-29.054c23.77,7.724,36.778,33.253,29.053,57.023
		C122.365,246.51,96.835,259.519,73.066,251.795z M175.972,396.349c-14.691,20.224-42.991,24.702-63.214,10.014
		c-20.217-14.693-24.702-42.991-10.011-63.214c14.69-20.217,42.991-24.701,63.212-10.01
		C186.18,347.829,190.663,376.131,175.972,396.349z M160,256c0-35.347,28.652-64,64-64c35.346,0,64,28.653,64,64
		c0,35.346-28.654,64-64,64C188.652,320,160,291.346,160,256z"/>
</g>
</svg>
