<?xml version="1.0" encoding="utf-8"?>
<!-- Generator: Adobe Illustrator 15.1.0, SVG Export Plug-In . SVG Version: 6.00 Build 0)  -->
<!DOCTYPE svg PUBLIC "-//W3C//DTD SVG 1.1//EN" "http://www.w3.org/Graphics/SVG/1.1/DTD/svg11.dtd">
<svg version="1.1" id="Layer_1" xmlns="http://www.w3.org/2000/svg" xmlns:xlink="http://www.w3.org/1999/xlink" x="0px" y="0px"
	 width="512px" height="512px" viewBox="0 0 512 512" enable-background="new 0 0 512 512" xml:space="preserve">
<path fill="#1A171B" d="M415.999,128C373.34,84.506,332.09,66.311,330.24,65.684C327.027,64.594,323.582,64,320,64
	c-17.675,0-32,14.326-32,32c0,16.977,13.228,30.826,29.935,31.895c0.652,0.062,1.332,0.105,2.065,0.105
	c64.001,0,111.999,128,111.999,128H80c0,0,48-128,111.999-128c0.736,0,1.413-0.043,2.067-0.105
	c16.705-1.068,29.933-14.918,29.933-31.895c0-17.674-14.327-32-32-32c-3.583,0-7.026,0.594-10.241,1.684
	C179.908,66.311,138.659,84.506,96,128C32.623,192.616,0,256,0,256v144c0,8.801,7.2,16,16,16h192c8.8,0,16-7.199,16-16v-64
	c0-0.084,0.254-8.73,4.311-16.846C233.481,308.814,242.28,304,256,304c13.404,0,22.081,4.58,27.306,14.412
	c4.492,8.453,4.693,17.588,4.693,17.588L288,400c0,8.801,7.2,16,15.999,16h192c8.8,0,16.001-7.199,16.001-16V256
	C512,256,479.376,192.616,415.999,128z M191.999,384H32v-96h159.999V384z M479.999,384H320v-96h159.999V384z"/>
</svg>
