<?xml version="1.0" encoding="utf-8"?>
<!-- Generator: Adobe Illustrator 15.1.0, SVG Export Plug-In . SVG Version: 6.00 Build 0)  -->
<!DOCTYPE svg PUBLIC "-//W3C//DTD SVG 1.1//EN" "http://www.w3.org/Graphics/SVG/1.1/DTD/svg11.dtd">
<svg version="1.1" id="Layer_1" xmlns="http://www.w3.org/2000/svg" xmlns:xlink="http://www.w3.org/1999/xlink" x="0px" y="0px"
	 width="512px" height="512px" viewBox="0 0 512 512" enable-background="new 0 0 512 512" xml:space="preserve">
<path fill="#1A171B" d="M464,88H47.998c0,26.51-21.488,48-47.998,48v240c26.51,0,47.998,21.492,47.998,48H464
	c0-26.508,21.49-48,48-48V136C485.49,136,464,114.51,464,88z M448,376H64v-16h384V376z M305.631,328L256,290.571L206.342,328
	l18.955-60.531l-49.299-38.812h60.922L256,168l19.077,60.656H336l-49.305,38.812L305.631,328z M448,152H64v-16h384V152z"/>
</svg>
