<?xml version="1.0" encoding="utf-8"?>
<!-- Generator: Adobe Illustrator 15.1.0, SVG Export Plug-In . SVG Version: 6.00 Build 0)  -->
<!DOCTYPE svg PUBLIC "-//W3C//DTD SVG 1.1//EN" "http://www.w3.org/Graphics/SVG/1.1/DTD/svg11.dtd">
<svg version="1.1" id="Layer_1" xmlns="http://www.w3.org/2000/svg" xmlns:xlink="http://www.w3.org/1999/xlink" x="0px" y="0px"
	 width="512px" height="512px" viewBox="0 0 512 512" enable-background="new 0 0 512 512" xml:space="preserve">
<path fill="#1A171B" d="M319.998,320v192h192V320H319.998z M479.998,432H352v-32h127.998V432z M441.899,254.65
	c57.899-58.275,45.999-136.875-10.25-177.35C368.848,32.1,276.25,63.75,256.848,143.65c-19.398-79.9-112-111.551-174.799-66.35
	c-56.25,40.475-68.176,119.075-10.274,177.35c58.224,58.475,185.073,185.899,185.073,185.899S269.223,428.125,288,409.25V288
	h120.648C420.973,275.674,432.399,264.15,441.899,254.65z"/>
</svg>
