<?xml version="1.0" encoding="utf-8"?>
<!-- Generator: Adobe Illustrator 15.1.0, SVG Export Plug-In . SVG Version: 6.00 Build 0)  -->
<!DOCTYPE svg PUBLIC "-//W3C//DTD SVG 1.1//EN" "http://www.w3.org/Graphics/SVG/1.1/DTD/svg11.dtd">
<svg version="1.1" id="Layer_1" xmlns="http://www.w3.org/2000/svg" xmlns:xlink="http://www.w3.org/1999/xlink" x="0px" y="0px"
	 width="512px" height="512px" viewBox="0 0 512 512" enable-background="new 0 0 512 512" xml:space="preserve">
<g>
	<path fill="#1A171B" d="M255.99,511.99l-36.025-27.775C7.589,320.215-7.61,192.816,2.19,131.466
		c9.524-59.55,48.4-105.725,104-123.5c52.525-16.825,106.1-6.649,149.8,27.925c43.7-34.574,97.175-44.8,149.849-27.925
		c55.575,17.775,94.4,63.95,103.975,123.5c9.826,61.351-5.425,188.749-217.824,352.749L255.99,511.99z M156.315,63.966
		c-9.975,0-20.275,1.7-30.625,5.024c-32.124,10.275-54.649,37.426-60.299,72.65c-6.075,37.824,0.525,141.6,190.6,289.475
		c190.099-147.9,196.674-251.625,190.599-289.475c-5.625-35.225-28.15-62.375-60.249-72.65c-39.301-12.6-75.802-1.35-106.851,32.25
		l-23.5,25.451l-23.5-25.451C209.665,76.49,184.04,63.966,156.315,63.966z"/>
</g>
</svg>
