<?xml version="1.0" encoding="utf-8"?>
<!-- Generator: Adobe Illustrator 15.1.0, SVG Export Plug-In . SVG Version: 6.00 Build 0)  -->
<!DOCTYPE svg PUBLIC "-//W3C//DTD SVG 1.1//EN" "http://www.w3.org/Graphics/SVG/1.1/DTD/svg11.dtd">
<svg version="1.1" id="Layer_1" xmlns="http://www.w3.org/2000/svg" xmlns:xlink="http://www.w3.org/1999/xlink" x="0px" y="0px"
	 width="512px" height="512px" viewBox="0 0 512 512" enable-background="new 0 0 512 512" xml:space="preserve">
<g>
	<path fill="#1A171B" d="M255.999,0C114.6,0,0,114.601,0,255.976C0,397.45,114.6,512,255.999,512c141.426,0,256-114.55,256-256.024
		C511.999,114.601,397.425,0,255.999,0z M255.999,448C150.124,448,64,361.875,64,255.976C64,150.125,150.124,64,255.999,64
		s192,86.125,192,191.976C447.999,361.875,361.874,448,255.999,448z"/>
	<circle fill="#1A171B" cx="191.999" cy="192" r="32"/>
	<circle fill="#1A171B" cx="319.999" cy="192" r="32"/>
	<path fill="#1A171B" d="M255.999,352c-41.796,0-77.334-26.719-90.516-64h-33.451c14.209,55.207,64.324,96,123.967,96
		c59.644,0,109.758-40.793,123.968-96h-33.452C333.334,325.281,297.796,352,255.999,352z"/>
</g>
</svg>
