<?xml version="1.0" encoding="utf-8"?>
<!-- Generator: Adobe Illustrator 15.1.0, SVG Export Plug-In . SVG Version: 6.00 Build 0)  -->
<!DOCTYPE svg PUBLIC "-//W3C//DTD SVG 1.1//EN" "http://www.w3.org/Graphics/SVG/1.1/DTD/svg11.dtd">
<svg version="1.1" id="Layer_1" xmlns="http://www.w3.org/2000/svg" xmlns:xlink="http://www.w3.org/1999/xlink" x="0px" y="0px"
	 width="512px" height="512px" viewBox="0 0 512 512" enable-background="new 0 0 512 512" xml:space="preserve">
<g>
	<path fill="#1A171B" d="M367.425,288.351c-61.778,0-111.8,50.071-111.825,111.824C255.6,461.953,305.647,512,367.425,512
		s111.85-50.047,111.825-111.825C479.25,338.422,429.203,288.351,367.425,288.351z M435.069,445.529l-22.59,22.59l-45.154-45.154
		l-45.179,45.179l-22.59-22.59l45.179-45.179l-45.203-45.204l22.59-22.615l45.203,45.229l45.18-45.179l22.59,22.589l-45.18,45.18
		L435.069,445.529z"/>
	<circle fill="#1A171B" cx="255.6" cy="128.601" r="127.8"/>
	<path fill="#1A171B" d="M223.65,400.175c0-45.17,20.836-85.466,53.413-111.824H95.85C43.133,288.351,0,331.482,0,384.2V512h277.062
		C244.486,485.642,223.65,445.345,223.65,400.175z"/>
</g>
</svg>
