<?xml version="1.0" encoding="utf-8"?>
<!-- Generator: Adobe Illustrator 15.1.0, SVG Export Plug-In . SVG Version: 6.00 Build 0)  -->
<!DOCTYPE svg PUBLIC "-//W3C//DTD SVG 1.1//EN" "http://www.w3.org/Graphics/SVG/1.1/DTD/svg11.dtd">
<svg version="1.1" id="Layer_1" xmlns="http://www.w3.org/2000/svg" xmlns:xlink="http://www.w3.org/1999/xlink" x="0px" y="0px"
	 width="512px" height="512px" viewBox="0 0 512 512" enable-background="new 0 0 512 512" xml:space="preserve">
<g>
	<path fill="#1A171B" d="M382.101,0H129.9C111.25,0,96,15.251,96,33.875v444.251C96,496.752,111.25,512,129.9,512h252.201
		C400.75,512,416,496.752,416,478.126V33.875C416,15.251,400.75,0,382.101,0z M191.975,32h127.95h0.051v32H192.05v-0.049h-0.076V32z
		 M160.025,448.001h-32.001V384h32.001V448.001z M320.001,481.876H192v-0.05h-0.05v-128h128v0.05h0.051V481.876z M383.976,448.001
		h-32.001V384h32.001V448.001z M384.001,320.126H128V96.077h256.001V320.126z"/>
	<polygon fill="#1A171B" points="223.975,384 223.975,447.951 224,447.951 224,448.001 287.975,448.001 287.975,384 287.95,384 	"/>
	<polygon fill="#1A171B" points="320.001,286.726 256,126.726 192,286.726 256,244.525 	"/>
</g>
</svg>
