<?xml version="1.0" encoding="utf-8"?>
<!-- Generator: Adobe Illustrator 15.1.0, SVG Export Plug-In . SVG Version: 6.00 Build 0)  -->
<!DOCTYPE svg PUBLIC "-//W3C//DTD SVG 1.1//EN" "http://www.w3.org/Graphics/SVG/1.1/DTD/svg11.dtd">
<svg version="1.1" id="Layer_1" xmlns="http://www.w3.org/2000/svg" xmlns:xlink="http://www.w3.org/1999/xlink" x="0px" y="0px"
	 width="512px" height="512px" viewBox="0 0 512 512" enable-background="new 0 0 512 512" xml:space="preserve">
<g>
	<path fill="#1A171B" d="M256,512c7.882,0,27.186-97.147,31.172-224.836h-62.343C228.817,414.853,248.12,512,256,512z"/>
	<path fill="#1A171B" d="M327.791,160.05V63.3c31.478-3.928,55.837-30.759,55.837-63.3h-55.837H256h-71.791h-55.837
		c0,32.541,24.36,59.372,55.837,63.3v96.75c-31.477,3.928-55.837,30.759-55.837,63.3v31.906h55.837h143.582h55.837V223.35
		C383.628,190.809,359.269,163.978,327.791,160.05z"/>
</g>
</svg>
