<?xml version="1.0" encoding="utf-8"?>
<!-- Generator: Adobe Illustrator 15.1.0, SVG Export Plug-In . SVG Version: 6.00 Build 0)  -->
<!DOCTYPE svg PUBLIC "-//W3C//DTD SVG 1.1//EN" "http://www.w3.org/Graphics/SVG/1.1/DTD/svg11.dtd">
<svg version="1.1" id="Layer_1" xmlns="http://www.w3.org/2000/svg" xmlns:xlink="http://www.w3.org/1999/xlink" x="0px" y="0px"
	 width="512px" height="512px" viewBox="0 0 512 512" enable-background="new 0 0 512 512" xml:space="preserve">
<path fill="#1A171B" d="M107.941,358.566l0.065,0.065C29.035,439.806-4.625,504.51,1.435,510.567
	c6.055,6.056,70.757-27.599,151.938-106.571l0.062,0.064l52.339-52.339l-45.492-45.495L107.941,358.566z M330.763,0.743
	c-23.008,23.01-24.756,59.209-5.275,84.242l-90.972,90.974c-25.036-19.479-61.233-17.732-84.245,5.277l-22.559,22.561
	l180.492,180.495l22.56-22.562c23.011-23.008,24.759-59.205,5.278-84.242l90.976-90.974c25.033,19.482,61.23,17.734,84.239-5.276
	L330.763,0.743z"/>
</svg>
