<?xml version="1.0" encoding="utf-8"?>
<!-- Generator: Adobe Illustrator 15.1.0, SVG Export Plug-In . SVG Version: 6.00 Build 0)  -->
<!DOCTYPE svg PUBLIC "-//W3C//DTD SVG 1.1//EN" "http://www.w3.org/Graphics/SVG/1.1/DTD/svg11.dtd">
<svg version="1.1" id="Layer_1" xmlns="http://www.w3.org/2000/svg" xmlns:xlink="http://www.w3.org/1999/xlink" x="0px" y="0px"
	 width="512px" height="512px" viewBox="0 0 512 512" enable-background="new 0 0 512 512" xml:space="preserve">
<path fill="#1A171B" d="M352.004,223.998v-63.999l-128,63.999v-63.999L96.005,223.998v-192H32v480.004h448.004V223.999v-64
	L352.004,223.998z M160.004,352.002h-32V288h32V352.002z M287.999,352.002H256V288h31.999V352.002z M416,352.002h-32V288h32V352.002
	z"/>
</svg>
