<?xml version="1.0" encoding="utf-8"?>
<!-- Generator: Adobe Illustrator 15.1.0, SVG Export Plug-In . SVG Version: 6.00 Build 0)  -->
<!DOCTYPE svg PUBLIC "-//W3C//DTD SVG 1.1//EN" "http://www.w3.org/Graphics/SVG/1.1/DTD/svg11.dtd">
<svg version="1.1" id="Layer_1" xmlns="http://www.w3.org/2000/svg" xmlns:xlink="http://www.w3.org/1999/xlink" x="0px" y="0px"
	 width="512px" height="512px" viewBox="0 0 512 512" enable-background="new 0 0 512 512" xml:space="preserve">
<g>
	<rect x="64" y="240" fill="#1A171B" width="144" height="272"/>
	<rect x="48" y="128" fill="#1A171B" width="160" height="96"/>
	<rect x="304" y="240" fill="#1A171B" width="144" height="272"/>
	<rect x="304" y="128" fill="#1A171B" width="160" height="96"/>
	<path fill="#1A171B" d="M432,56.002c0-30.878-25.121-56-56-56c-31.535,0-72.33,26.439-84.084,34.544
		C281.38,41.812,266.969,52.741,256,64.788c-10.969-12.047-25.379-22.977-35.917-30.242C208.332,26.441,167.536,0.002,136,0.002
		c-30.878,0-56,25.122-56,56s25.122,56,56,56h104h32h104C406.879,112.002,432,86.88,432,56.002z M136,80.002
		c-13.235,0-24-10.766-24-24s10.765-24,24-24c13.789,0,38.414,10.492,62.736,26.729c11.522,7.69,20.57,15.038,27.239,21.271H136z
		 M313.264,58.731C337.586,42.494,362.209,32.002,376,32.002c13.234,0,24,10.766,24,24s-10.766,24-24,24h-89.975
		C292.692,73.77,301.742,66.422,313.264,58.731z"/>
</g>
</svg>
