<?xml version="1.0" encoding="utf-8"?>
<!-- Generator: Adobe Illustrator 15.1.0, SVG Export Plug-In . SVG Version: 6.00 Build 0)  -->
<!DOCTYPE svg PUBLIC "-//W3C//DTD SVG 1.1//EN" "http://www.w3.org/Graphics/SVG/1.1/DTD/svg11.dtd">
<svg version="1.1" id="Layer_1" xmlns="http://www.w3.org/2000/svg" xmlns:xlink="http://www.w3.org/1999/xlink" x="0px" y="0px"
	 width="512px" height="512px" viewBox="0 0 512 512" enable-background="new 0 0 512 512" xml:space="preserve">
<path fill="#1A171B" d="M415.994,224.249h-128V96.273c0-17.625-14.301-32-32-32c-17.676,0-32,14.375-32,32v127.976H96.02
	c-17.676,0-32,14.3-32,32c0,17.675,14.324,32,32,32h127.975v127.975c0,17.675,14.324,32,32,32c17.699,0,32-14.325,32-32V288.249h128
	c17.674,0,32-14.325,32-32C447.994,238.549,433.668,224.249,415.994,224.249z"/>
</svg>
