<?xml version="1.0" encoding="utf-8"?>
<!-- Generator: Adobe Illustrator 15.1.0, SVG Export Plug-In . SVG Version: 6.00 Build 0)  -->
<!DOCTYPE svg PUBLIC "-//W3C//DTD SVG 1.1//EN" "http://www.w3.org/Graphics/SVG/1.1/DTD/svg11.dtd">
<svg version="1.1" id="Layer_1" xmlns="http://www.w3.org/2000/svg" xmlns:xlink="http://www.w3.org/1999/xlink" x="0px" y="0px"
	 width="512px" height="512px" viewBox="0 0 512 512" enable-background="new 0 0 512 512" xml:space="preserve">
<path fill="#1A171B" d="M448,0H64C28.65,0,0,28.674,0,64v383.999c0,35.375,28.65,64,64,64h384c35.351,0,64-28.625,64-64V64
	C512,28.674,483.351,0,448,0z M414.425,369.349c12.476,12.525,12.5,32.825,0,45.3c-12.5,12.525-32.774,12.476-45.25,0L256.05,301.5
	L142.9,414.648c-12.5,12.525-32.75,12.525-45.25,0c-12.5-12.524-12.5-32.774,0-45.3l113.1-113.1L97.65,143.148
	c-12.476-12.524-12.55-32.798,0-45.3c12.5-12.525,32.774-12.5,45.25,0.05L256,211.023L369.175,97.849
	c12.5-12.525,32.75-12.525,45.25,0s12.5,32.775,0,45.3L301.3,256.249L414.425,369.349z"/>
</svg>
