<?xml version="1.0" encoding="utf-8"?>
<!-- Generator: Adobe Illustrator 15.1.0, SVG Export Plug-In . SVG Version: 6.00 Build 0)  -->
<!DOCTYPE svg PUBLIC "-//W3C//DTD SVG 1.1//EN" "http://www.w3.org/Graphics/SVG/1.1/DTD/svg11.dtd">
<svg version="1.1" id="Layer_1" xmlns="http://www.w3.org/2000/svg" xmlns:xlink="http://www.w3.org/1999/xlink" x="0px" y="0px"
	 width="512px" height="512px" viewBox="0 0 512 512" enable-background="new 0 0 512 512" xml:space="preserve">
<path fill="#1A171B" d="M256,0C114.575,0.126,0,114.725,0,255.999c0.025,141.5,114.524,256.025,255.975,256.025
	c141.425,0,256.049-114.525,256.025-256.025C512.049,114.725,397.45,0,256,0z M416.1,303.924H304.099v112.001h-95.998V303.924H96.1
	v-95.999h112.001v-112h95.998v112H416.1V303.924z"/>
</svg>
