<?xml version="1.0" encoding="utf-8"?>
<!-- Generator: Adobe Illustrator 15.1.0, SVG Export Plug-In . SVG Version: 6.00 Build 0)  -->
<!DOCTYPE svg PUBLIC "-//W3C//DTD SVG 1.1//EN" "http://www.w3.org/Graphics/SVG/1.1/DTD/svg11.dtd">
<svg version="1.1" id="Layer_1" xmlns="http://www.w3.org/2000/svg" xmlns:xlink="http://www.w3.org/1999/xlink" x="0px" y="0px"
	 width="512px" height="512px" viewBox="0 0 512 512" enable-background="new 0 0 512 512" xml:space="preserve">
<path fill="#1A171B" d="M160,159.951v192h191.999v-192H160z M312.5,222.176l-33.925,33.925l33.925,33.9l-22.65,22.625l-33.899-33.9
	L222,312.677l-22.601-22.625l33.925-33.951l-33.975-33.925L222,199.5l33.95,33.95l33.95-33.924L312.5,222.176z"/>
</svg>
