<?xml version="1.0" encoding="utf-8"?>
<!-- Generator: Adobe Illustrator 15.1.0, SVG Export Plug-In . SVG Version: 6.00 Build 0)  -->
<!DOCTYPE svg PUBLIC "-//W3C//DTD SVG 1.1//EN" "http://www.w3.org/Graphics/SVG/1.1/DTD/svg11.dtd">
<svg version="1.1" id="Layer_1" xmlns="http://www.w3.org/2000/svg" xmlns:xlink="http://www.w3.org/1999/xlink" x="0px" y="0px"
	 width="512px" height="512px" viewBox="0 0 512 512" enable-background="new 0 0 512 512" xml:space="preserve">
<path fill="#1A171B" d="M416,319.999c-21.182,0-40.75,6.877-56.625,18.494l-164.988-82.492l164.988-82.494
	c15.875,11.619,35.443,18.492,56.625,18.492c53.018,0,96-42.98,96-96C512,42.981,469.018,0,416,0
	c-52.615,0-95.318,42.331-95.971,94.791l-167.405,83.702C136.75,166.874,117.181,160,96,160c-53.019,0-96,42.981-96,96.001
	c0,53.018,42.981,96,96,96c21.182,0,40.75-6.877,56.625-18.494l167.405,83.703c0.652,52.459,43.355,94.791,95.971,94.791
	c53.018,0,96-42.982,96-96.002C512,362.981,469.018,319.999,416,319.999z"/>
</svg>
