<?xml version="1.0" encoding="utf-8"?>
<!-- Generator: Adobe Illustrator 15.1.0, SVG Export Plug-In . SVG Version: 6.00 Build 0)  -->
<!DOCTYPE svg PUBLIC "-//W3C//DTD SVG 1.1//EN" "http://www.w3.org/Graphics/SVG/1.1/DTD/svg11.dtd">
<svg version="1.1" id="Layer_1" xmlns="http://www.w3.org/2000/svg" xmlns:xlink="http://www.w3.org/1999/xlink" x="0px" y="0px"
	 width="512px" height="512px" viewBox="0 0 512 512" enable-background="new 0 0 512 512" xml:space="preserve">
<g>
	<polygon fill="#1A171B" points="480,128 256,0 32,128 256,256.001 	"/>
	<polygon fill="#1A171B" points="256,447.999 88,352.001 32,384.001 256,512.001 480,384.001 424,352.001 	"/>
	<polygon fill="#1A171B" points="256,319.999 88,224.001 32,256.001 256,384.001 480,256.001 424,224.001 	"/>
</g>
</svg>
