<?xml version="1.0" encoding="utf-8"?>
<!-- Generator: Adobe Illustrator 15.1.0, SVG Export Plug-In . SVG Version: 6.00 Build 0)  -->
<!DOCTYPE svg PUBLIC "-//W3C//DTD SVG 1.1//EN" "http://www.w3.org/Graphics/SVG/1.1/DTD/svg11.dtd">
<svg version="1.1" id="Layer_1" xmlns="http://www.w3.org/2000/svg" xmlns:xlink="http://www.w3.org/1999/xlink" x="0px" y="0px"
	 width="512px" height="512px" viewBox="0 0 512 512" enable-background="new 0 0 512 512" xml:space="preserve">
<polygon fill="#1A171B" points="383.806,221.239 383.806,129.719 256.263,0.3 127.844,130.62 127.844,222.114 223.589,124.994 
	223.589,256.288 159.667,256.288 159.667,320.284 223.589,320.284 223.589,384.281 159.667,384.281 159.667,448.278 
	223.589,448.278 223.589,511.95 287.586,511.95 287.586,448.278 351.658,448.278 351.658,384.281 287.586,384.281 287.586,320.284 
	351.658,320.284 351.658,256.288 287.586,256.288 287.586,123.594 "/>
</svg>
