<?xml version="1.0" encoding="utf-8"?>
<!-- Generator: Adobe Illustrator 15.1.0, SVG Export Plug-In . SVG Version: 6.00 Build 0)  -->
<!DOCTYPE svg PUBLIC "-//W3C//DTD SVG 1.1//EN" "http://www.w3.org/Graphics/SVG/1.1/DTD/svg11.dtd">
<svg version="1.1" id="Layer_1" xmlns="http://www.w3.org/2000/svg" xmlns:xlink="http://www.w3.org/1999/xlink" x="0px" y="0px"
	 width="512px" height="512px" viewBox="0 0 512 512" enable-background="new 0 0 512 512" xml:space="preserve">
<path fill="#1A171B" d="M256,0C114.616,0,0,114.615,0,256s114.616,256,256,256c141.383,0,256.002-114.615,256.002-256
	S397.383,0,256,0z M256,432.001c-97.201,0-176-78.8-176-176.001S158.798,80,256,80c97.202,0,176,78.799,176,176
	S353.201,432.001,256,432.001z"/>
</svg>
