<?xml version="1.0" encoding="utf-8"?>
<!-- Generator: Adobe Illustrator 15.1.0, SVG Export Plug-In . SVG Version: 6.00 Build 0)  -->
<!DOCTYPE svg PUBLIC "-//W3C//DTD SVG 1.1//EN" "http://www.w3.org/Graphics/SVG/1.1/DTD/svg11.dtd">
<svg version="1.1" id="Layer_1" xmlns="http://www.w3.org/2000/svg" xmlns:xlink="http://www.w3.org/1999/xlink" x="0px" y="0px"
	 width="512px" height="512px" viewBox="0 0 512 512" enable-background="new 0 0 512 512" xml:space="preserve">
<g>
	<path fill="#1A171B" d="M0,0v0.051v383.9h121.825L32.025,512.126h68.65l92.05-128.175H224.2V512.4h64.001V383.951h31.324
		l91.85,128.175h68.576L390.35,383.951H512V0.051V0H0z M480,351.95H32V96.001h448V351.95z"/>
	<polygon fill="#1A171B" points="249.878,247.021 323.006,320.144 350.801,292.351 277.672,219.225 335.504,209.656 
		158.625,127.976 240.313,304.853 	"/>
</g>
</svg>
