<?xml version="1.0" encoding="utf-8"?>
<!-- Generator: Adobe Illustrator 15.1.0, SVG Export Plug-In . SVG Version: 6.00 Build 0)  -->
<!DOCTYPE svg PUBLIC "-//W3C//DTD SVG 1.1//EN" "http://www.w3.org/Graphics/SVG/1.1/DTD/svg11.dtd">
<svg version="1.1" id="Layer_1" xmlns="http://www.w3.org/2000/svg" xmlns:xlink="http://www.w3.org/1999/xlink" x="0px" y="0px"
	 width="512px" height="512px" viewBox="0 0 512 512" enable-background="new 0 0 512 512" xml:space="preserve">
<path fill="#1A171B" d="M0,0v511.998h512V0H0z M480,479.998H32.002V31.999H480V479.998z M448.001,63.999h-384v384h384V63.999z
	 M303.999,95.976c26.502,0,48.001,21.474,48.001,47.998c0,26.526-21.499,48.001-48.001,48.001
	c-26.524,0-47.998-21.475-47.998-48.001C256.001,117.449,277.475,95.976,303.999,95.976z M96.001,415.999l128-192l74.674,112
	l32-48.001l85.326,128.001H96.001z"/>
</svg>
