<?xml version="1.0" encoding="utf-8"?>
<!-- Generator: Adobe Illustrator 15.1.0, SVG Export Plug-In . SVG Version: 6.00 Build 0)  -->
<!DOCTYPE svg PUBLIC "-//W3C//DTD SVG 1.1//EN" "http://www.w3.org/Graphics/SVG/1.1/DTD/svg11.dtd">
<svg version="1.1" id="Layer_1" xmlns="http://www.w3.org/2000/svg" xmlns:xlink="http://www.w3.org/1999/xlink" x="0px" y="0px"
	 width="512px" height="512px" viewBox="0 0 512 512" enable-background="new 0 0 512 512" xml:space="preserve">
<path fill="#1A171B" d="M437.127,74.921c-99.894-99.895-262.338-99.895-362.207,0c-99.894,99.893-99.894,262.316,0,362.188
	c99.844,99.844,262.313,99.893,362.207,0C536.996,337.237,536.945,174.739,437.127,74.921z M414.501,414.511
	c-87.366,87.338-229.559,87.367-316.953,0c-87.394-87.428-87.364-229.569,0-316.969c87.395-87.367,229.528-87.367,316.953,0
	C501.865,184.941,501.865,327.083,414.501,414.511z M256.249,432c-8.833,0-15.992,7.159-15.992,15.993
	c0,8.848,7.159,15.994,15.992,15.994c8.82,0,15.99-7.146,15.99-15.994C272.239,439.159,265.069,432,256.249,432z M344.247,408.366
	c-7.649,4.416-10.27,14.196-5.853,21.848c4.424,7.662,14.197,10.271,21.847,5.855c7.639-4.41,10.275-14.184,5.852-21.846
	C361.676,406.571,351.886,403.958,344.247,408.366z M168.051,103.585c7.638-4.41,10.274-14.185,5.851-21.846
	c-4.416-7.652-14.207-10.268-21.846-5.857c-7.648,4.418-10.269,14.196-5.852,21.848C150.628,105.392,160.4,108.001,168.051,103.585z
	 M81.812,173.903c7.66,4.422,17.429,1.795,21.846-5.854c4.41-7.637,1.807-17.422-5.855-21.846
	c-7.65-4.418-17.438-1.787-21.847,5.852C71.539,159.708,74.159,169.484,81.812,173.903z M430.486,338.049
	c-7.65-4.418-17.438-1.786-21.848,5.853c-4.416,7.649-1.796,17.428,5.855,21.846c7.661,4.422,17.432,1.797,21.848-5.854
	C440.752,352.255,438.147,342.473,430.486,338.049z M448.165,239.884c-8.834-0.002-15.993,7.173-15.993,15.99
	c0,8.834,7.158,15.992,15.993,15.994c8.846-0.002,15.995-7.16,15.994-15.994C464.158,247.053,457.013,239.882,448.165,239.884z
	 M80.124,256.075c0-8.82-7.146-15.992-15.994-15.991c-8.834-0.001-15.996,7.171-15.994,15.991c0,8.833,7.159,15.991,15.994,15.991
	C72.977,272.066,80.123,264.908,80.124,256.075z M81.909,338.222c-7.651,4.416-10.267,14.207-5.855,21.846
	c4.417,7.65,14.195,10.27,21.847,5.853c7.661-4.424,10.271-14.196,5.855-21.847C99.347,336.435,89.57,333.798,81.909,338.222z
	 M430.386,173.729c7.659-4.424,10.271-14.197,5.854-21.85c-4.411-7.637-14.185-10.274-21.846-5.849
	c-7.652,4.415-10.266,14.208-5.855,21.845C412.955,175.526,422.732,178.146,430.386,173.729z M344.071,103.483
	c7.65,4.419,17.427,1.797,21.848-5.854c4.419-7.662,1.797-17.432-5.854-21.85c-7.64-4.406-17.423-1.806-21.845,5.858
	C333.801,89.288,336.434,99.073,344.071,103.483z M168.221,408.467c-7.638-4.411-17.423-1.808-21.845,5.856
	c-4.419,7.648-1.789,17.436,5.852,21.846c7.649,4.418,17.427,1.795,21.845-5.855C178.496,422.651,175.871,412.884,168.221,408.467z
	 M369.303,293.465l-89.298-51.347V72c0-13.255-10.745-24.001-24-24.001S232.004,58.745,232.004,72v197.886l113.373,65.192
	c3.77,2.167,7.883,3.198,11.941,3.198c8.309-0.002,16.389-4.321,20.827-12.041C384.754,314.745,380.795,300.072,369.303,293.465z"/>
</svg>
