<?xml version="1.0" encoding="utf-8"?>
<!-- Generator: Adobe Illustrator 15.1.0, SVG Export Plug-In . SVG Version: 6.00 Build 0)  -->
<!DOCTYPE svg PUBLIC "-//W3C//DTD SVG 1.1//EN" "http://www.w3.org/Graphics/SVG/1.1/DTD/svg11.dtd">
<svg version="1.1" id="Layer_1" xmlns="http://www.w3.org/2000/svg" xmlns:xlink="http://www.w3.org/1999/xlink" x="0px" y="0px"
	 width="512px" height="512px" viewBox="0 0 512 512" enable-background="new 0 0 512 512" xml:space="preserve">
<path fill="#1A171B" d="M437.127,74.921c-99.893-99.895-262.338-99.895-362.206,0c-99.895,99.893-99.895,262.316,0,362.188
	c99.843,99.844,262.313,99.893,362.206,0C536.995,337.237,536.945,174.739,437.127,74.921z M403.18,403.188
	c-81.125,81.1-213.16,81.127-294.312,0c-81.151-81.183-81.123-213.17,0-294.326c81.151-81.127,213.134-81.127,294.312,0
	C484.304,190.019,484.304,322.006,403.18,403.188z M432.165,239.884c-8.835-0.002-15.994,7.173-15.994,15.99
	c0,8.834,7.157,15.992,15.994,15.994c8.846-0.002,15.995-7.16,15.994-15.994C448.158,247.053,441.013,239.882,432.165,239.884z
	 M96.125,256.075c0-8.82-7.147-15.992-15.994-15.991c-8.834-0.001-15.996,7.171-15.994,15.991c0,8.833,7.159,15.991,15.994,15.991
	C88.977,272.066,96.123,264.908,96.125,256.075z M95.768,330.222c-7.651,4.416-10.267,14.207-5.856,21.846
	c4.417,7.65,14.196,10.27,21.848,5.853c7.661-4.424,10.271-14.196,5.854-21.847C113.203,328.435,103.429,325.796,95.768,330.222z
	 M416.529,181.729c7.66-4.424,10.273-14.196,5.855-21.848c-4.412-7.639-14.186-10.276-21.847-5.85
	c-7.651,4.415-10.265,14.207-5.854,21.844C399.098,183.527,408.877,186.146,416.529,181.729z M176.222,394.608
	c-7.637-4.408-17.422-1.807-21.844,5.857c-4.419,7.649-1.789,17.438,5.851,21.848c7.65,4.418,17.429,1.793,21.848-5.857
	C186.499,408.794,183.873,399.027,176.222,394.608z M336.074,117.341c7.648,4.418,17.427,1.796,21.846-5.854
	c4.422-7.663,1.799-17.432-5.854-21.849c-7.64-4.41-17.423-1.807-21.843,5.856C325.803,103.144,328.437,112.931,336.074,117.341z
	 M256.248,415.998c-8.819,0-15.992,7.147-15.99,15.994c-0.001,8.835,7.17,15.995,15.991,15.995c8.832,0,15.99-7.16,15.991-15.995
	C272.239,423.146,265.081,416.001,256.248,415.998z M176.05,117.439c7.65-4.414,10.269-14.192,5.854-21.846
	c-4.427-7.662-14.198-10.274-21.849-5.854c-7.639,4.412-10.275,14.185-5.85,21.846C158.62,119.235,168.411,121.849,176.05,117.439z
	 M336.246,394.509c-7.639,4.41-10.275,14.188-5.851,21.848c4.415,7.65,14.206,10.267,21.847,5.855
	c7.648-4.414,10.267-14.196,5.851-21.848C353.668,392.702,343.896,390.093,336.246,394.509z M416.63,330.049
	c-7.663-4.426-17.431-1.8-21.849,5.854c-4.41,7.634-1.805,17.421,5.857,21.843c7.648,4.416,17.437,1.788,21.848-5.852
	C426.903,344.245,424.279,334.465,416.63,330.049z M95.668,181.902c7.648,4.415,17.435,1.784,21.846-5.854
	c4.419-7.648,1.797-17.426-5.854-21.847c-7.665-4.422-17.435-1.798-21.849,5.855C85.402,167.696,88.003,177.48,95.668,181.902z
	 M369.305,293.465l-89.299-51.347V88c0-13.255-10.746-24-24-24c-13.255,0-24.001,10.745-24.001,24v181.886l113.372,65.192
	c3.771,2.167,7.883,3.198,11.941,3.198c8.309-0.002,16.389-4.321,20.827-12.041C384.754,314.745,380.795,300.072,369.305,293.465z"
	/>
</svg>
