<?xml version="1.0" encoding="utf-8"?>
<!-- Generator: Adobe Illustrator 15.1.0, SVG Export Plug-In . SVG Version: 6.00 Build 0)  -->
<!DOCTYPE svg PUBLIC "-//W3C//DTD SVG 1.1//EN" "http://www.w3.org/Graphics/SVG/1.1/DTD/svg11.dtd">
<svg version="1.1" id="Layer_1" xmlns="http://www.w3.org/2000/svg" xmlns:xlink="http://www.w3.org/1999/xlink" x="0px" y="0px"
	 width="512px" height="512px" viewBox="0 0 512 512" enable-background="new 0 0 512 512" xml:space="preserve">
<g>
	<path fill="#1A171B" d="M256,0C114.616,0,0,114.615,0,255.999C0,397.384,114.616,512,256,512c141.385,0,256-114.616,256-256.001
		C512,114.615,397.385,0,256,0z M256,479.999c-123.711,0-224-100.287-224-224C32,132.287,132.289,32,256,32v223.999h223.999
		C479.999,379.712,379.713,479.999,256,479.999z"/>
	<rect x="240" y="384" fill="#1A171B" width="32" height="63.999"/>
	
		<rect x="144.001" y="101.435" transform="matrix(0.5 0.866 -0.866 0.5 189.7019 -93.7038)" fill="#1A171B" width="64" height="32"/>
	
		<rect x="304.003" y="378.563" transform="matrix(0.5 0.866 -0.866 0.5 509.6896 -93.7092)" fill="#1A171B" width="63.999" height="32.001"/>
	<rect x="85.437" y="160" transform="matrix(0.866 0.5 -0.5 0.866 103.7285 -35.1389)" fill="#1A171B" width="64" height="31.999"/>
	
		<rect x="362.566" y="319.998" transform="matrix(0.866 0.5 -0.5 0.866 220.8647 -152.2687)" fill="#1A171B" width="63.999" height="32.003"/>
	<rect x="64.002" y="240" fill="#1A171B" width="64.002" height="31.999"/>
	
		<rect x="85.437" y="319.998" transform="matrix(0.866 -0.5 0.5 0.866 -152.2578 103.726)" fill="#1A171B" width="64.004" height="32"/>
	
		<rect x="160.002" y="362.56" transform="matrix(-0.866 -0.5 0.5 -0.866 131.1365 824.2612)" fill="#1A171B" width="32.001" height="64.002"/>
</g>
</svg>
