<?xml version="1.0" encoding="utf-8"?>
<!-- Generator: Adobe Illustrator 15.1.0, SVG Export Plug-In . SVG Version: 6.00 Build 0)  -->
<!DOCTYPE svg PUBLIC "-//W3C//DTD SVG 1.1//EN" "http://www.w3.org/Graphics/SVG/1.1/DTD/svg11.dtd">
<svg version="1.1" id="Layer_1" xmlns="http://www.w3.org/2000/svg" xmlns:xlink="http://www.w3.org/1999/xlink" x="0px" y="0px"
	 width="512px" height="512px" viewBox="0 0 512 512" enable-background="new 0 0 512 512" xml:space="preserve">
<g>
	<path fill="#1A171B" d="M496.15,223.2l-71.176-10.576c-3.675-15.7-9.323-30.65-16.899-44.425l42.426-57.274
		c5.249-7.05,4.425-17.926-1.775-24.15L426.801,64.8c-6.226-6.25-17.125-7.05-24.201-1.8l-55.1,40.875
		c-14.275-9.025-29.899-16.101-46.574-20.726l-9.95-67.3C289.675,7.175,281.426,0,272.601,0h-31.076
		c-8.8,0-17.099,7.175-18.375,15.85l-9.675,65.399C195.901,85.325,179.325,92.05,164.2,101l-53.275-39.551
		c-7.074-5.2-17.974-4.449-24.199,1.801l-22,22c-6.225,6.225-7,17.124-1.8,24.199l39.399,53.075
		C93.4,177.449,86.6,193.824,82.4,211.2l-66.55,9.874C7.15,222.35,0,230.649,0,239.425v31.125c0,8.749,7.15,17.05,15.851,18.351
		l67.725,10.024c4.45,16.274,11.149,31.625,19.801,45.699l-41.9,56.525c-5.276,7.05-4.476,17.95,1.774,24.15l21.999,22
		c6.227,6.25,17.127,7.05,24.201,1.8l57.699-42.825c13.401,7.524,27.876,13.3,43.1,17.149l10.802,72.751
		c1.3,8.725,9.599,15.825,18.374,15.825h31.051c8.825,0,17.075-7.101,18.375-15.825l10.875-73.525c14.5-3.95,28.2-9.65,40.95-16.925
		l60.399,44.825c7.075,5.25,17.976,4.449,24.176-1.801l22-21.95c6.225-6.2,7.024-17.1,1.774-24.174l-44.35-59.775
		c7.624-12.7,13.725-26.426,17.975-40.95l73.475-10.925c8.7-1.25,15.851-9.55,15.851-18.351L512,241.549
		C512,232.75,504.85,224.475,496.15,223.2z M253.525,348.8c-52.926,0-96.025-43.101-96.025-96.05c0-52.9,43.1-95.951,96.025-95.951
		c52.95,0,95.975,43.051,95.975,95.951C349.5,305.699,306.476,348.8,253.525,348.8z"/>
	<path fill="#1A171B" d="M253.525,284.749c-17.7,0-32.024-14.299-32.024-31.999c0-17.65,14.324-32,32.024-32
		c17.65,0,31.975,14.35,31.975,32C285.5,270.45,271.176,284.749,253.525,284.749z"/>
</g>
</svg>
