<?xml version="1.0" encoding="utf-8"?>
<!-- Generator: Adobe Illustrator 15.1.0, SVG Export Plug-In . SVG Version: 6.00 Build 0)  -->
<!DOCTYPE svg PUBLIC "-//W3C//DTD SVG 1.1//EN" "http://www.w3.org/Graphics/SVG/1.1/DTD/svg11.dtd">
<svg version="1.1" id="Layer_1" xmlns="http://www.w3.org/2000/svg" xmlns:xlink="http://www.w3.org/1999/xlink" x="0px" y="0px"
	 width="512px" height="512px" viewBox="0 0 512 512" enable-background="new 0 0 512 512" xml:space="preserve">
<g>
	<path fill="#1A171B" d="M509.273,304.624l-77.777-48.667l77.775-48.665l-19.773-60.858l-91.526,6.342l34.316-85.084l-51.768-37.613
		l-70.319,58.927L287.951,0h-63.988l-22.252,89.005l-70.319-58.929L79.624,67.688l34.314,85.086l-91.527-6.343L2.638,207.29
		l77.773,48.667L2.638,304.622l19.773,60.858l91.525-6.341l-34.314,85.084l51.768,37.614l70.321-58.93l22.252,89.006h63.988
		l22.25-89.006l70.319,58.928l51.768-37.61l-34.314-85.088l91.524,6.343L509.273,304.624z M255.957,351.94
		c-53.01,0-95.984-42.974-95.984-95.983c0-53.012,42.974-95.984,95.984-95.984s95.984,42.973,95.984,95.984
		C351.941,308.967,308.967,351.94,255.957,351.94z"/>
	<path fill="#1A171B" d="M255.957,223.962c-17.674,0-31.994,14.324-31.994,31.995c0,17.669,14.32,31.994,31.994,31.994
		c17.669,0,31.994-14.325,31.994-31.994C287.951,238.286,273.626,223.962,255.957,223.962z"/>
</g>
</svg>
