<?xml version="1.0" encoding="utf-8"?>
<!-- Generator: Adobe Illustrator 15.1.0, SVG Export Plug-In . SVG Version: 6.00 Build 0)  -->
<!DOCTYPE svg PUBLIC "-//W3C//DTD SVG 1.1//EN" "http://www.w3.org/Graphics/SVG/1.1/DTD/svg11.dtd">
<svg version="1.1" id="Layer_1" xmlns="http://www.w3.org/2000/svg" xmlns:xlink="http://www.w3.org/1999/xlink" x="0px" y="0px"
	 width="512px" height="512px" viewBox="0 0 512 512" enable-background="new 0 0 512 512" xml:space="preserve">
<path fill="#1A171B" d="M80,64c-8.8,0-16-7.2-16-16c0-8.801,7.2-16,16-16h400V0H80C53.49,0,32,21.491,32,48v415.999
	c0,26.51,21.49,48.002,48,48.002h400V64H80z M448,415.998l-64.002,64.003H96V96h288.002L448,159.999V415.998z"/>
</svg>
