<?xml version="1.0" encoding="utf-8"?>
<!-- Generator: Adobe Illustrator 15.1.0, SVG Export Plug-In . SVG Version: 6.00 Build 0)  -->
<!DOCTYPE svg PUBLIC "-//W3C//DTD SVG 1.1//EN" "http://www.w3.org/Graphics/SVG/1.1/DTD/svg11.dtd">
<svg version="1.1" id="Layer_1" xmlns="http://www.w3.org/2000/svg" xmlns:xlink="http://www.w3.org/1999/xlink" x="0px" y="0px"
	 width="512px" height="512px" viewBox="0 0 512 512" enable-background="new 0 0 512 512" xml:space="preserve">
<g>
	<polygon fill="#1A171B" points="288.051,383.874 288.051,415.899 416.101,415.899 416.101,287.825 384.05,287.876 384.05,361.276 
		278.75,255.626 256.125,278.25 361.4,383.874 	"/>
	<path fill="#1A171B" d="M351.85,160.176V0H0v351.926h160.15v160.15H512v-351.9H351.85z M160.15,319.926H32V32h287.85v128.176
		H160.15V319.926z M448,448.075H224.15V224.176H448V448.075z"/>
</g>
</svg>
