<?xml version="1.0" encoding="utf-8"?>
<!-- Generator: Adobe Illustrator 15.1.0, SVG Export Plug-In . SVG Version: 6.00 Build 0)  -->
<!DOCTYPE svg PUBLIC "-//W3C//DTD SVG 1.1//EN" "http://www.w3.org/Graphics/SVG/1.1/DTD/svg11.dtd">
<svg version="1.1" id="Layer_1" xmlns="http://www.w3.org/2000/svg" xmlns:xlink="http://www.w3.org/1999/xlink" x="0px" y="0px"
	 width="512px" height="512px" viewBox="0 0 512 512" enable-background="new 0 0 512 512" xml:space="preserve">
<g>
	<polygon fill="#1A171B" points="32,191.957 32,95.981 128,95.981 128,63.982 0,63.982 0,191.957 	"/>
	<polygon fill="#1A171B" points="384,95.981 479.999,95.981 479.999,191.957 512,191.957 512,63.982 384,63.982 	"/>
	<polygon fill="#1A171B" points="479.999,319.957 479.999,415.981 384,415.981 384,447.981 512,447.981 512,319.957 	"/>
	<polygon fill="#1A171B" points="128,415.981 32,415.981 32,319.957 0,319.957 0,447.981 128,447.981 	"/>
</g>
</svg>
